{
  "main.css": "static/css/main.64fe337f.css",
  "main.css.map": "static/css/main.64fe337f.css.map",
  "main.js": "static/js/main.532cd490.js",
  "main.js.map": "static/js/main.532cd490.js.map",
  "static/js/0.406e9882.chunk.js": "static/js/0.406e9882.chunk.js",
  "static/js/0.406e9882.chunk.js.map": "static/js/0.406e9882.chunk.js.map",
  "static/js/1.e6b49a19.chunk.js": "static/js/1.e6b49a19.chunk.js",
  "static/js/1.e6b49a19.chunk.js.map": "static/js/1.e6b49a19.chunk.js.map",
  "static/js/10.135ce1b4.chunk.js": "static/js/10.135ce1b4.chunk.js",
  "static/js/10.135ce1b4.chunk.js.map": "static/js/10.135ce1b4.chunk.js.map",
  "static/js/11.22d7fdd4.chunk.js": "static/js/11.22d7fdd4.chunk.js",
  "static/js/11.22d7fdd4.chunk.js.map": "static/js/11.22d7fdd4.chunk.js.map",
  "static/js/2.fbd9751d.chunk.js": "static/js/2.fbd9751d.chunk.js",
  "static/js/2.fbd9751d.chunk.js.map": "static/js/2.fbd9751d.chunk.js.map",
  "static/js/3.f65f4973.chunk.js": "static/js/3.f65f4973.chunk.js",
  "static/js/3.f65f4973.chunk.js.map": "static/js/3.f65f4973.chunk.js.map",
  "static/js/4.f263c739.chunk.js": "static/js/4.f263c739.chunk.js",
  "static/js/4.f263c739.chunk.js.map": "static/js/4.f263c739.chunk.js.map",
  "static/js/5.179439b8.chunk.js": "static/js/5.179439b8.chunk.js",
  "static/js/5.179439b8.chunk.js.map": "static/js/5.179439b8.chunk.js.map",
  "static/js/6.3adff774.chunk.js": "static/js/6.3adff774.chunk.js",
  "static/js/6.3adff774.chunk.js.map": "static/js/6.3adff774.chunk.js.map",
  "static/js/7.f56b0e13.chunk.js": "static/js/7.f56b0e13.chunk.js",
  "static/js/7.f56b0e13.chunk.js.map": "static/js/7.f56b0e13.chunk.js.map",
  "static/js/8.257a8ee2.chunk.js": "static/js/8.257a8ee2.chunk.js",
  "static/js/8.257a8ee2.chunk.js.map": "static/js/8.257a8ee2.chunk.js.map",
  "static/js/9.a98c9827.chunk.js": "static/js/9.a98c9827.chunk.js",
  "static/js/9.a98c9827.chunk.js.map": "static/js/9.a98c9827.chunk.js.map",
  "static/media/china.svg": "static/media/china.84911517.svg",
  "static/media/logo-color.svg": "static/media/logo-color.3e13fd61.svg",
  "static/media/logo-white.svg": "static/media/logo-white.1a8c6f4d.svg",
  "static/media/rob.png": "static/media/rob.b34fc52c.png",
  "static/media/signin.jpg": "static/media/signin.18fda86f.jpg",
  "static/media/uk.svg": "static/media/uk.b8a75c53.svg",
  "static/media/user.png": "static/media/user.9bf2481d.png",
  "static/media/vi.png": "static/media/vi.a6f733e8.png"
}